{
	"info": {
		"_postman_id": "4a02206c-7337-4d1e-add8-cc92cc34bd70",
		"name": "WEareCollectionWorkingInGit",
		"schema": "https://schema.getpostman.com/json/collection/v2.1.0/collection.json"
	},
	"item": [
		{
			"name": "Authentication",
			"item": [
				{
					"name": "UserRegistration",
					"event": [
						{
							"listen": "test",
							"script": {
								"exec": [
									"var req = JSON.parse(pm.request.body.raw);\r",
									"pm.collectionVariables.set(\"username\", req.username);\r",
									"pm.collectionVariables.set(\"email\", req.email);\r",
									"pm.collectionVariables.set(\"password\", req.password);\r",
									"\r",
									"pm.test(\"Status code is 200\", function () {\r",
									"    pm.response.to.have.status(200);\r",
									"});\r",
									"\r",
									"pm.test(\"User was created\", function () {\r",
									"    pm.expect(pm.response.text()).to.include(\"was created\");\r",
									"});\r",
									"\r",
									"//console.log(pm.response.text().split(\" \"));\r",
									"pm.collectionVariables.set(\"userId\", pm.response.text().split(\" \")[6]);\r",
									"\r",
									"pm.test(\"User name is checked\", function () {\r",
									"    var nom = pm.response.text().split(\" \")[3];\r",
									"    pm.expect(nom).to.be.equal(pm.collectionVariables.get(\"username\"));\r",
									"});"
								],
								"type": "text/javascript"
							}
						}
					],
					"protocolProfileBehavior": {
						"disabledSystemHeaders": {}
					},
					"request": {
						"method": "POST",
						"header": [],
						"body": {
							"mode": "raw",
							"raw": "{\r\n    \"authorities\": [\r\n        \"minim pariatur com\",\r\n        \"irure Excepteur veniam\"\r\n    ],\r\n    \"category\": {\r\n                \"id\": 101,\r\n                \"name\": \"Accountant\"\r\n            },\r\n    \"confirmPassword\": \"{{password}}\",\r\n    \"email\": \"{{$randomEmail}}\",\r\n    \"password\": \"{{$randomPassword}}\",\r\n    \"username\": \"{{$randomLastName}}\"\r\n}",
							"options": {
								"raw": {
									"language": "json"
								}
							}
						},
						"url": {
							"raw": "{{baseUrl}}/api/users/",
							"host": [
								"{{baseUrl}}"
							],
							"path": [
								"api",
								"users",
								""
							]
						}
					},
					"response": []
				},
				{
					"name": "Authenticate",
					"event": [
						{
							"listen": "test",
							"script": {
								"exec": [
									"pm.test(\"Status code is 200\", function () {\r",
									"    pm.response.to.have.status(200);\r",
									"});\r",
									"\r",
									"pm.test(\"Status code is 200\", function () {\r",
									"    pm.response.to.have.status(\"OK\");\r",
									"});"
								],
								"type": "text/javascript"
							}
						}
					],
					"request": {
						"method": "POST",
						"header": [],
						"body": {
							"mode": "urlencoded",
							"urlencoded": [
								{
									"key": "username",
									"value": "{{username}}",
									"type": "text"
								},
								{
									"key": "password",
									"value": "{{password}}",
									"type": "text"
								}
							]
						},
						"url": {
							"raw": "{{baseUrl}}/authenticate",
							"host": [
								"{{baseUrl}}"
							],
							"path": [
								"authenticate"
							]
						}
					},
					"response": []
				},
				{
					"name": "getUsers",
					"event": [
						{
							"listen": "test",
							"script": {
								"exec": [
									"pm.test(\"Status code is 200\", function () {\r",
									"    pm.response.to.have.status(200);\r",
									"});\r",
									"\r",
									"pm.test(\"Username was shown\", function () {\r",
									"    var jsonData = pm.response.json();\r",
									"    pm.expect(jsonData.username).to.be.string;\r",
									"});\r",
									"\r",
									"pm.test(\"Response username is equal to collection variable username\", function () {\r",
									"    var jsonData = JSON.parse(responseBody);\r",
									"    pm.expect(jsonData[0].username).to.be.equal(pm.collectionVariables.get(\"username\"));\r",
									"});\r",
									"\r",
									"//var jsonData = JSON.parse(responseBody);\r",
									"//pm.collectionVariables.set(\"userId\", jsonData[0].userId);\r",
									"//pm.collectionVariables.set(\"username\", jsonData[0].username);"
								],
								"type": "text/javascript"
							}
						}
					],
					"request": {
						"method": "POST",
						"header": [],
						"body": {
							"mode": "raw",
							"raw": "{\r\n  \"index\": 0,\r\n  \"next\": true,\r\n  \"searchParam1\": \"\",\r\n  \"searchParam2\": \"\",\r\n  \"size\": 10\r\n}\r\n",
							"options": {
								"raw": {
									"language": "json"
								}
							}
						},
						"url": {
							"raw": "{{baseUrl}}/api/users",
							"host": [
								"{{baseUrl}}"
							],
							"path": [
								"api",
								"users"
							]
						}
					},
					"response": []
				}
			]
		},
		{
			"name": "Edit Profile",
			"item": [
				{
					"name": "getUserById",
					"event": [
						{
							"listen": "test",
							"script": {
								"exec": [
									"pm.test(\"Status code is 200\", function () {\r",
									"    pm.response.to.have.status(200);\r",
									"});\r",
									"\r",
									"pm.test(\"We got user\", function () {\r",
									"    var jsonData = pm.response.json();\r",
									"    pm.expect(jsonData.username).to.be.string;\r",
									"});\r",
									"\r",
									"pm.test(\"Response username is equal to collection variable username\", function () {\r",
									"    var jsonData = pm.response.json();\r",
									"    pm.expect(jsonData.username).to.be.equal(pm.collectionVariables.get(\"username\"));\r",
									"});\r",
									""
								],
								"type": "text/javascript"
							}
						}
					],
					"request": {
						"method": "GET",
						"header": [],
						"url": {
							"raw": "{{baseUrl}}/api/users/auth/:id?principal={{username}}",
							"host": [
								"{{baseUrl}}"
							],
							"path": [
								"api",
								"users",
								"auth",
								":id"
							],
							"query": [
								{
									"key": "principal",
									"value": "{{username}}",
									"description": "principal"
								}
							],
							"variable": [
								{
									"key": "id",
									"value": "{{userId}}",
									"description": "(Required) id"
								}
							]
						}
					},
					"response": []
				},
				{
					"name": "upgradeUserPersonalProfile",
					"event": [
						{
							"listen": "test",
							"script": {
								"exec": [
									"pm.test(\"Status code is 200\", function () {\r",
									"    pm.response.to.have.status(200);\r",
									"});\r",
									"\r",
									"pm.test(\"Your test id is bigger than ten\", function () {\r",
									"    var jsonData = pm.response.json();\r",
									"    pm.expect(jsonData.id).to.be.gt(10);\r",
									"});\r",
									"\r",
									"pm.test(\"Your test is a string\", function () {\r",
									"    var jsonData = pm.response.json();\r",
									"    pm.expect(jsonData.firstName).to.be.string;\r",
									"});"
								],
								"type": "text/javascript"
							}
						},
						{
							"listen": "prerequest",
							"script": {
								"exec": [
									""
								],
								"type": "text/javascript"
							}
						}
					],
					"protocolProfileBehavior": {
						"disabledSystemHeaders": {}
					},
					"request": {
						"method": "POST",
						"header": [
							{
								"key": "Content-Type",
								"value": "application/json",
								"disabled": true
							}
						],
						"body": {
							"mode": "raw",
							"raw": "{\n    \"birthYear\": \" \",\n    \"firstName\": \"{{$randomFirstName}}\",\n    \"id\": {{userId}},\n    \"lastName\": \"{{$randomLastName}}\",\n    \"location\": {},\n    \"memberSince\":\" \",\n    \"personalReview\": \"ad dolor aute Lorem\",\n    \"picture\": \"eu aliqua culpa consequat\",\n    \"picturePrivacy\": true,\n    \"sex\": \"FEMALE\"\n}",
							"options": {
								"raw": {
									"language": "json"
								}
							}
						},
						"url": {
							"raw": "{{baseUrl}}/api/users/auth/:id/personal?name={{username}}",
							"host": [
								"{{baseUrl}}"
							],
							"path": [
								"api",
								"users",
								"auth",
								":id",
								"personal"
							],
							"query": [
								{
									"key": "name",
									"value": "{{username}}"
								}
							],
							"variable": [
								{
									"key": "id",
									"value": "{{userId}}"
								}
							]
						}
					},
					"response": []
				},
				{
					"name": "upgradeUserExpertiseProfile",
					"event": [
						{
							"listen": "test",
							"script": {
								"exec": [
									"pm.test(\"Status code is 200\", function () {\r",
									"    pm.response.to.have.status(200);\r",
									"});\r",
									"\r",
									"pm.test(\"User expertise profile has been changed\", function () {\r",
									"    var jsonData = pm.response.json();\r",
									"    pm.expect(jsonData.id).to.be.greaterThan(0);\r",
									"});\r",
									"\r",
									""
								],
								"type": "text/javascript"
							}
						}
					],
					"protocolProfileBehavior": {
						"disabledSystemHeaders": {
							"content-type": true
						}
					},
					"request": {
						"method": "POST",
						"header": [
							{
								"key": "Content-Type",
								"value": "application/json"
							}
						],
						"body": {
							"mode": "raw",
							"raw": "{\n    \"availability\": 40,\n    \"category\": {\n        \"id\": {{$randomInt}},\n        \"name\": \"{{$randomLoremWord}}\"\n    },\n    \"id\": {{userId}},\n    \"skill1\": \"{{$randomLoremWord}}\",\n    \"skill2\": \"{{$randomLoremWord}}\",\n    \n    \n    \"skills\": [\n        \"{{$randomLoremWord}}\",\n        \"{{$randomLoremSentence}}\"\n    ]\n}"
						},
						"url": {
							"raw": "{{baseUrl}}/api/users/auth/:id/expertise?name={{username}}",
							"host": [
								"{{baseUrl}}"
							],
							"path": [
								"api",
								"users",
								"auth",
								":id",
								"expertise"
							],
							"query": [
								{
									"key": "name",
									"value": "{{username}}"
								}
							],
							"variable": [
								{
									"key": "id",
									"value": "{{userId}}"
								}
							]
						}
					},
					"response": []
				}
			]
		},
		{
			"name": "Users Posts",
			"item": [
				{
					"name": "savePost",
					"event": [
						{
							"listen": "test",
							"script": {
								"exec": [
									"pm.test(\"Status code is 200\", function () {\r",
									"    pm.response.to.have.status(200);\r",
									"});\r",
									"\r",
									"pm.test(\"Post has been created\", function () {\r",
									"    var jsonData = pm.response.json();\r",
									"    pm.expect(jsonData.postId).to.be.gt(0);\r",
									"});\r",
									"\r",
									"pm.test(\"Response has a string for content\", function () {\r",
									"    pm.expect(pm.response.content).to.be.string;\r",
									"});\r",
									"\r",
									"pm.collectionVariables.set(\"postId\", pm.response.json().postId);"
								],
								"type": "text/javascript"
							}
						},
						{
							"listen": "prerequest",
							"script": {
								"exec": [
									""
								],
								"type": "text/javascript"
							}
						}
					],
					"request": {
						"method": "POST",
						"header": [
							{
								"key": "Content-Type",
								"value": "application/json"
							}
						],
						"body": {
							"mode": "raw",
							"raw": "{\n    \"content\": \"{{$randomLoremSentence}}\",\n    \"picture\": \"do id reprehenderit ex\",\n    \"public\": true\n}"
						},
						"url": {
							"raw": "{{baseUrl}}/api/post/auth/creator?name={{username}}",
							"host": [
								"{{baseUrl}}"
							],
							"path": [
								"api",
								"post",
								"auth",
								"creator"
							],
							"query": [
								{
									"key": "name",
									"value": "{{username}}"
								}
							]
						}
					},
					"response": []
				},
				{
					"name": "editPost",
					"event": [
						{
							"listen": "test",
							"script": {
								"exec": [
									"pm.test(\"Status code is 200\", function () {\r",
									"    pm.response.to.have.status(200);\r",
									"});\r",
									"\r",
									"pm.test(\"Status code is 200\", function () {\r",
									"    pm.response.to.have.status(\"OK\");\r",
									"});"
								],
								"type": "text/javascript"
							}
						}
					],
					"protocolProfileBehavior": {
						"disabledSystemHeaders": {
							"content-type": true
						}
					},
					"request": {
						"method": "PUT",
						"header": [
							{
								"key": "Content-Type",
								"value": "application/json"
							}
						],
						"body": {
							"mode": "raw",
							"raw": "{\n    \"content\": \"edited post {{$randomLoremSentence}}\",\n    \"picture\": \"do id reprehenderit ex\",\n    \"public\": true\n}"
						},
						"url": {
							"raw": "{{baseUrl}}/api/post/auth/editor?name={{username}}&postId={{postId}}",
							"host": [
								"{{baseUrl}}"
							],
							"path": [
								"api",
								"post",
								"auth",
								"editor"
							],
							"query": [
								{
									"key": "name",
									"value": "{{username}}"
								},
								{
									"key": "postId",
									"value": "{{postId}}",
									"description": "(Required) postId"
								}
							]
						}
					},
					"response": []
				},
				{
					"name": "likeAPost",
					"event": [
						{
							"listen": "test",
							"script": {
								"exec": [
									"pm.test(\"Status code is 200\", function () {\r",
									"    pm.response.to.have.status(200);\r",
									"});\r",
									"\r",
									"pm.test(\"Post has a like\", function () {\r",
									"    var jsonData = pm.response.json();\r",
									"    pm.expect(jsonData.liked).to.be.eql(true);\r",
									"});\r",
									"\r",
									"pm.test(\"Response has a string for content\", function () {\r",
									"    pm.expect(pm.response.content).to.be.string;\r",
									"});"
								],
								"type": "text/javascript"
							}
						}
					],
					"request": {
						"method": "POST",
						"header": [],
						"url": {
							"raw": "{{baseUrl}}/api/post/auth/likesUp?name={{username}}&postId={{postId}}",
							"host": [
								"{{baseUrl}}"
							],
							"path": [
								"api",
								"post",
								"auth",
								"likesUp"
							],
							"query": [
								{
									"key": "name",
									"value": "{{username}}"
								},
								{
									"key": "postId",
									"value": "{{postId}}",
									"description": "(Required) postId"
								}
							]
						}
					},
					"response": []
				},
				{
					"name": "findAllPosts",
					"event": [
						{
							"listen": "test",
							"script": {
								"exec": [
									"pm.test(\"Status code is 200\", function () {\r",
									"    pm.response.to.have.status(200);\r",
									"});\r",
									"\r",
									"pm.test(\"All posts has been found\", function () {\r",
									"    var jsonData = JSON.parse(responseBody);\r",
									"    pm.expect(jsonData[0].content).to.be.string;\r",
									"});\r",
									"\r",
									""
								],
								"type": "text/javascript"
							}
						}
					],
					"request": {
						"method": "GET",
						"header": [],
						"url": {
							"raw": "{{baseUrl}}/api/post/?name={{username}}&sorted=true&unsorted=true",
							"host": [
								"{{baseUrl}}"
							],
							"path": [
								"api",
								"post",
								""
							],
							"query": [
								{
									"key": "name",
									"value": "{{username}}"
								},
								{
									"key": "sorted",
									"value": "true"
								},
								{
									"key": "unsorted",
									"value": "true"
								}
							]
						}
					},
					"response": []
				}
			]
		},
		{
			"name": "Comments",
			"item": [
				{
					"name": "postComment",
					"event": [
						{
							"listen": "test",
							"script": {
								"exec": [
									"pm.test(\"Status code is 200\", function () {\r",
									"    pm.response.to.have.status(200);\r",
									"});\r",
									"\r",
									"pm.test(\"Comment has been created\", function () {\r",
									"    var jsonData = pm.response.json();\r",
									"    pm.expect(jsonData.commentId).to.be.greaterThan(0);\r",
									"});\r",
									"\r",
									"pm.test(\"Response has a string for content\", function () {\r",
									"    pm.expect(pm.response.content).to.be.string;\r",
									"});\r",
									"\r",
									"var jsonData = pm.response.json();\r",
									"pm.collectionVariables.set(\"commentId\", pm.response.json().commentId)"
								],
								"type": "text/javascript"
							}
						}
					],
					"request": {
						"auth": {
							"type": "noauth"
						},
						"method": "POST",
						"header": [
							{
								"key": "Content-Type",
								"value": "application/json"
							}
						],
						"body": {
							"mode": "raw",
							"raw": "{\n    \"commentId\": 0,\n    \"content\": \"{{$randomLoremSentence}}\",\n    \"deletedConfirmed\": true,\n    \"postId\":{{postId}},\n    \"userId\": {{userId}}\n}"
						},
						"url": {
							"raw": "{{baseUrl}}/api/comment/auth/creator?name={{username}}",
							"host": [
								"{{baseUrl}}"
							],
							"path": [
								"api",
								"comment",
								"auth",
								"creator"
							],
							"query": [
								{
									"key": "name",
									"value": "{{username}}"
								}
							]
						}
					},
					"response": []
				},
				{
					"name": "findAllCommentsOnPost",
					"event": [
						{
							"listen": "test",
							"script": {
								"exec": [
									"pm.test(\"Status code is 200\", function () {\r",
									"    pm.response.to.have.status(200);\r",
									"});\r",
									"\r",
									"pm.test(\"Posts have been found\", function () {\r",
									"    var jsonData = JSON.parse(responseBody);\r",
									"    pm.expect(jsonData[0].commentId).to.be.gt(0);\r",
									"});\r",
									"\r",
									""
								],
								"type": "text/javascript"
							}
						}
					],
					"request": {
						"method": "GET",
						"header": [],
						"url": {
							"raw": "{{baseUrl}}/api/comment?sorted=true&unsorted=true",
							"host": [
								"{{baseUrl}}"
							],
							"path": [
								"api",
								"comment"
							],
							"query": [
								{
									"key": "sorted",
									"value": "true"
								},
								{
									"key": "unsorted",
									"value": "true"
								}
							]
						}
					},
					"response": []
				},
				{
					"name": "showComments",
					"event": [
						{
							"listen": "test",
							"script": {
								"exec": [
									"pm.test(\"Status code is 200\", function () {\r",
									"    pm.response.to.have.status(200);\r",
									"});\r",
									"\r",
									"pm.test(\"Show comment\", function () {\r",
									"    var jsonData = JSON.parse(responseBody);\r",
									"    pm.expect(jsonData[0].commentId).to.be.gt(0); \r",
									"});\r",
									"\r",
									""
								],
								"type": "text/javascript"
							}
						}
					],
					"request": {
						"method": "GET",
						"header": [],
						"url": {
							"raw": "{{baseUrl}}/api/post/Comments?postId={{postId}}",
							"host": [
								"{{baseUrl}}"
							],
							"path": [
								"api",
								"post",
								"Comments"
							],
							"query": [
								{
									"key": "postId",
									"value": "{{postId}}",
									"description": "(Required) postId"
								}
							]
						}
					},
					"response": []
				},
				{
					"name": "likeComment",
					"event": [
						{
							"listen": "test",
							"script": {
								"exec": [
									"pm.test(\"Status code is 200\", function () {\r",
									"    pm.response.to.have.status(200);\r",
									"});\r",
									"\r",
									"pm.test(\"Your test name\", function () {\r",
									"    var jsonData = pm.response.json();\r",
									"    pm.expect(jsonData.commentId).to.be.gt(1);\r",
									"});"
								],
								"type": "text/javascript"
							}
						}
					],
					"request": {
						"method": "POST",
						"header": [],
						"url": {
							"raw": "{{baseUrl}}/api/comment/auth/likesUp?commentId={{commentId}}&name={{username}}",
							"host": [
								"{{baseUrl}}"
							],
							"path": [
								"api",
								"comment",
								"auth",
								"likesUp"
							],
							"query": [
								{
									"key": "commentId",
									"value": "{{commentId}}",
									"description": "(Required) commentId"
								},
								{
									"key": "name",
									"value": "{{username}}"
								}
							]
						}
					},
					"response": []
				},
				{
					"name": "deleteComment",
					"event": [
						{
							"listen": "test",
							"script": {
								"exec": [
									"pm.test(\"Response time is less than 200ms\", function () {\r",
									"    pm.expect(pm.response.responseTime).to.be.below(200);\r",
									"});\r",
									"\r",
									"pm.test(\"Status code is 200\", function () {\r",
									"    pm.response.to.have.status(200);\r",
									"});\r",
									"\r",
									"pm.test(\"Status code is 200\", function () {\r",
									"    pm.response.to.have.status(\"OK\");\r",
									"});"
								],
								"type": "text/javascript"
							}
						}
					],
					"request": {
						"method": "DELETE",
						"header": [],
						"url": {
							"raw": "{{baseUrl}}/api/comment/auth/manager?commentId={{commentId}}&name={{username}}",
							"host": [
								"{{baseUrl}}"
							],
							"path": [
								"api",
								"comment",
								"auth",
								"manager"
							],
							"query": [
								{
									"key": "commentId",
									"value": "{{commentId}}",
									"description": "(Required) commentId"
								},
								{
									"key": "name",
									"value": "{{username}}"
								}
							]
						}
					},
					"response": []
				}
			]
		},
		{
			"name": "HappyPath",
			"item": [
				{
					"name": "UserRegistration",
					"event": [
						{
							"listen": "test",
							"script": {
								"exec": [
									"var req = JSON.parse(pm.request.body.raw);\r",
									"pm.collectionVariables.set(\"username\", req.username);\r",
									"pm.collectionVariables.set(\"email\", req.email);\r",
									"pm.collectionVariables.set(\"password\", req.password);\r",
									"\r",
									"pm.test(\"Status code is 200\", function () {\r",
									"    pm.response.to.have.status(200);\r",
									"});\r",
									"pm.test(\"User was created\", function () {\r",
									"    pm.expect(pm.response.text()).to.include(\"was created\");\r",
									"});\r",
									"\r",
									"//console.log(pm.response.text().split(\" \"));\r",
									"pm.collectionVariables.set(\"userId\", pm.response.text().split(\" \")[6]);\r",
									"\r",
									"pm.test(\"User name is checked\", function () {\r",
									"    var nom = pm.response.text().split(\" \")[3];\r",
									"    pm.expect(nom).to.be.equal(pm.collectionVariables.get(\"username\"));\r",
									"});"
								],
								"type": "text/javascript"
							}
						}
					],
					"protocolProfileBehavior": {
						"disabledSystemHeaders": {}
					},
					"request": {
						"method": "POST",
						"header": [],
						"body": {
							"mode": "raw",
							"raw": "{\r\n    \"authorities\": [\r\n        \"minim pariatur com\",\r\n        \"irure Excepteur veniam\"\r\n    ],\r\n    \"category\": {\r\n                \"id\": 101,\r\n                \"name\": \"Accountant\"\r\n            },\r\n    \"confirmPassword\": \"{{password}}\",\r\n    \"email\": \"{{$randomEmail}}\",\r\n    \"password\": \"{{$randomPassword}}\",\r\n    \"username\": \"{{$randomLastName}}\"\r\n}",
							"options": {
								"raw": {
									"language": "json"
								}
							}
						},
						"url": {
							"raw": "{{baseUrl}}/api/users/",
							"host": [
								"{{baseUrl}}"
							],
							"path": [
								"api",
								"users",
								""
							]
						}
					},
					"response": []
				},
				{
					"name": "Authenticate",
					"event": [
						{
							"listen": "test",
							"script": {
								"exec": [
									"pm.test(\"Status code is 200\", function () {\r",
									"    pm.response.to.have.status(200);\r",
									"});\r",
									"\r",
									"pm.test(\"Status code is 200\", function () {\r",
									"    pm.response.to.have.status(\"OK\");\r",
									"});"
								],
								"type": "text/javascript"
							}
						}
					],
					"request": {
						"method": "POST",
						"header": [],
						"body": {
							"mode": "urlencoded",
							"urlencoded": [
								{
									"key": "username",
									"value": "{{username}}",
									"type": "text"
								},
								{
									"key": "password",
									"value": "{{password}}",
									"type": "text"
								}
							]
						},
						"url": {
							"raw": "{{baseUrl}}/authenticate",
							"host": [
								"{{baseUrl}}"
							],
							"path": [
								"authenticate"
							]
						}
					},
					"response": []
				},
				{
					"name": "UpgradeUserPersonalProfile",
					"event": [
						{
							"listen": "test",
							"script": {
								"exec": [
									"pm.test(\"Status code is 200\", function () {\r",
									"    pm.response.to.have.status(200);\r",
									"});\r",
									"\r",
									"pm.test(\"Your test id is bigger than ten\", function () {\r",
									"    var jsonData = pm.response.json();\r",
									"    pm.expect(jsonData.id).to.be.gt(10);\r",
									"});\r",
									"\r",
									"pm.test(\"Your test is a string\", function () {\r",
									"    var jsonData = pm.response.json();\r",
									"    pm.expect(jsonData.firstName).to.be.string;\r",
									"});"
								],
								"type": "text/javascript"
							}
						},
						{
							"listen": "prerequest",
							"script": {
								"exec": [
									""
								],
								"type": "text/javascript"
							}
						}
					],
					"protocolProfileBehavior": {
						"disabledSystemHeaders": {}
					},
					"request": {
						"method": "POST",
						"header": [
							{
								"key": "Content-Type",
								"value": "application/json",
								"disabled": true
							}
						],
						"body": {
							"mode": "raw",
							"raw": "{\n    \"birthYear\": \" \",\n    \"firstName\": \"{{$randomFirstName}}\",\n    \"id\": {{userId}},\n    \"lastName\": \"{{$randomLastName}}\",\n    \"location\": {},\n    \"memberSince\":\" \",\n    \"personalReview\": \"ad dolor aute Lorem\",\n    \"picture\": \"eu aliqua culpa consequat\",\n    \"picturePrivacy\": true,\n    \"sex\": \"FEMALE\"\n}",
							"options": {
								"raw": {
									"language": "json"
								}
							}
						},
						"url": {
							"raw": "{{baseUrl}}/api/users/auth/:id/personal?name={{username}}",
							"host": [
								"{{baseUrl}}"
							],
							"path": [
								"api",
								"users",
								"auth",
								":id",
								"personal"
							],
							"query": [
								{
									"key": "name",
									"value": "{{username}}"
								}
							],
							"variable": [
								{
									"key": "id",
									"value": "{{userId}}"
								}
							]
						}
					},
					"response": []
				},
				{
					"name": "UpgradeUserExpertiseProfile",
					"event": [
						{
							"listen": "test",
							"script": {
								"exec": [
									"pm.test(\"Status code is 200\", function () {\r",
									"    pm.response.to.have.status(200);\r",
									"});\r",
									"\r",
									"pm.test(\"User expertise profile has been changed\", function () {\r",
									"    var jsonData = pm.response.json();\r",
									"    pm.expect(jsonData.id).to.be.greaterThan(0);\r",
									"});\r",
									"\r",
									""
								],
								"type": "text/javascript"
							}
						}
					],
					"protocolProfileBehavior": {
						"disabledSystemHeaders": {
							"content-type": true
						}
					},
					"request": {
						"method": "POST",
						"header": [
							{
								"key": "Content-Type",
								"value": "application/json"
							}
						],
						"body": {
							"mode": "raw",
							"raw": "{\n    \"availability\": 40,\n    \"category\": {\n        \"id\": {{$randomInt}},\n        \"name\": \"{{$randomLoremWord}}\"\n    },\n    \"id\": {{userId}},\n    \"skill1\": \"{{$randomLoremWord}}\",\n    \"skill2\": \"{{$randomLoremWord}}\",\n    \n    \"skills\": [\n        \"{{$randomLoremWord}}\",\n        \"{{$randomLoremSentence}}\"\n    ]\n}"
						},
						"url": {
							"raw": "{{baseUrl}}/api/users/auth/:id/expertise?name={{username}}",
							"host": [
								"{{baseUrl}}"
							],
							"path": [
								"api",
								"users",
								"auth",
								":id",
								"expertise"
							],
							"query": [
								{
									"key": "name",
									"value": "{{username}}"
								}
							],
							"variable": [
								{
									"key": "id",
									"value": "{{userId}}"
								}
							]
						}
					},
					"response": []
				},
				{
					"name": "SavePost",
					"event": [
						{
							"listen": "test",
							"script": {
								"exec": [
									"pm.test(\"Status code is 200\", function () {\r",
									"    pm.response.to.have.status(200);\r",
									"});\r",
									"\r",
									"pm.test(\"Post has been created\", function () {\r",
									"    var jsonData = pm.response.json();\r",
									"    pm.expect(jsonData.postId).to.be.gt(0);\r",
									"});\r",
									"\r",
									"pm.test(\"Response has a string for content\", function () {\r",
									"    pm.expect(pm.response.content).to.be.string;\r",
									"});\r",
									"\r",
									"pm.collectionVariables.set(\"postId\", pm.response.json().postId);"
								],
								"type": "text/javascript"
							}
						},
						{
							"listen": "prerequest",
							"script": {
								"exec": [
									""
								],
								"type": "text/javascript"
							}
						}
					],
					"request": {
						"method": "POST",
						"header": [
							{
								"key": "Content-Type",
								"value": "application/json"
							}
						],
						"body": {
							"mode": "raw",
							"raw": "{\n    \"content\": \"{{$randomLoremSentence}}\",\n    \"picture\": \"do id reprehenderit ex\",\n    \"public\": true\n}"
						},
						"url": {
							"raw": "{{baseUrl}}/api/post/auth/creator?name={{username}}",
							"host": [
								"{{baseUrl}}"
							],
							"path": [
								"api",
								"post",
								"auth",
								"creator"
							],
							"query": [
								{
									"key": "name",
									"value": "{{username}}"
								}
							]
						}
					},
					"response": []
				},
				{
					"name": "EditPost",
					"event": [
						{
							"listen": "test",
							"script": {
								"exec": [
									"pm.test(\"Status code is 200\", function () {\r",
									"    pm.response.to.have.status(200);\r",
									"});\r",
									"\r",
									"pm.test(\"Status code is 200\", function () {\r",
									"    pm.response.to.have.status(\"OK\");\r",
									"});"
								],
								"type": "text/javascript"
							}
						}
					],
					"protocolProfileBehavior": {
						"disabledSystemHeaders": {
							"content-type": true
						}
					},
					"request": {
						"method": "PUT",
						"header": [
							{
								"key": "Content-Type",
								"value": "application/json"
							}
						],
						"body": {
							"mode": "raw",
							"raw": "{\n    \"content\": \"edited post {{$randomLoremSentence}}\",\n    \"picture\": \"do id reprehenderit ex\",\n    \"public\": true\n}"
						},
						"url": {
							"raw": "{{baseUrl}}/api/post/auth/editor?name={{username}}&postId={{postId}}",
							"host": [
								"{{baseUrl}}"
							],
							"path": [
								"api",
								"post",
								"auth",
								"editor"
							],
							"query": [
								{
									"key": "name",
									"value": "{{username}}"
								},
								{
									"key": "postId",
									"value": "{{postId}}",
									"description": "(Required) postId"
								}
							]
						}
					},
					"response": []
				},
				{
					"name": "PostComment",
					"event": [
						{
							"listen": "test",
							"script": {
								"exec": [
									"pm.test(\"Status code is 200\", function () {\r",
									"    pm.response.to.have.status(200);\r",
									"});\r",
									"\r",
									"pm.test(\"Comment has been created\", function () {\r",
									"    var jsonData = pm.response.json();\r",
									"    pm.expect(jsonData.commentId).to.be.greaterThan(0);\r",
									"});\r",
									"\r",
									"pm.test(\"Response has a string for content\", function () {\r",
									"    pm.expect(pm.response.content).to.be.string;\r",
									"});\r",
									"\r",
									"var jsonData = pm.response.json();\r",
									"pm.collectionVariables.set(\"commentId\", pm.response.json().commentId)"
								],
								"type": "text/javascript"
							}
						}
					],
					"request": {
						"auth": {
							"type": "noauth"
						},
						"method": "POST",
						"header": [
							{
								"key": "Content-Type",
								"value": "application/json"
							}
						],
						"body": {
							"mode": "raw",
							"raw": "{\n    \"commentId\": 0,\n    \"content\": \"{{$randomLoremSentence}}\",\n    \"deletedConfirmed\": true,\n    \"postId\":{{postId}},\n    \"userId\": {{userId}}\n}"
						},
						"url": {
							"raw": "{{baseUrl}}/api/comment/auth/creator?name={{username}}",
							"host": [
								"{{baseUrl}}"
							],
							"path": [
								"api",
								"comment",
								"auth",
								"creator"
							],
							"query": [
								{
									"key": "name",
									"value": "{{username}}"
								}
							]
						}
					},
					"response": []
				},
				{
					"name": "LikeAPost",
					"event": [
						{
							"listen": "test",
							"script": {
								"exec": [
									"pm.test(\"Status code is 200\", function () {\r",
									"    pm.response.to.have.status(200);\r",
									"});\r",
									"\r",
									"pm.test(\"Post has a like\", function () {\r",
									"    var jsonData = pm.response.json();\r",
									"    pm.expect(jsonData.liked).to.be.eql(true);\r",
									"});\r",
									"\r",
									"pm.test(\"Response has a string for content\", function () {\r",
									"    pm.expect(pm.response.content).to.be.string;\r",
									"});"
								],
								"type": "text/javascript"
							}
						}
					],
					"request": {
						"method": "POST",
						"header": [],
						"url": {
							"raw": "{{baseUrl}}/api/post/auth/likesUp?name={{username}}&postId={{postId}}",
							"host": [
								"{{baseUrl}}"
							],
							"path": [
								"api",
								"post",
								"auth",
								"likesUp"
							],
							"query": [
								{
									"key": "name",
									"value": "{{username}}"
								},
								{
									"key": "postId",
									"value": "{{postId}}",
									"description": "(Required) postId"
								}
							]
						}
					},
					"response": []
				},
				{
					"name": "PostComment",
					"event": [
						{
							"listen": "test",
							"script": {
								"exec": [
									"pm.test(\"Status code is 200\", function () {\r",
									"    pm.response.to.have.status(200);\r",
									"});\r",
									"\r",
									"pm.test(\"Comment has been created\", function () {\r",
									"    var jsonData = pm.response.json();\r",
									"    pm.expect(jsonData.commentId).to.be.greaterThan(0);\r",
									"});\r",
									"\r",
									"pm.test(\"Response has a string for content\", function () {\r",
									"    pm.expect(pm.response.content).to.be.string;\r",
									"});\r",
									"\r",
									"var jsonData = pm.response.json();\r",
									"pm.collectionVariables.set(\"commentId\", pm.response.json().commentId)"
								],
								"type": "text/javascript"
							}
						}
					],
					"request": {
						"auth": {
							"type": "noauth"
						},
						"method": "POST",
						"header": [
							{
								"key": "Content-Type",
								"value": "application/json"
							}
						],
						"body": {
							"mode": "raw",
							"raw": "{\n    \"commentId\": 0,\n    \"content\": \"{{$randomLoremSentence}}\",\n    \"deletedConfirmed\": true,\n    \"postId\":{{postId}},\n    \"userId\": {{userId}}\n}"
						},
						"url": {
							"raw": "{{baseUrl}}/api/comment/auth/creator?name={{username}}",
							"host": [
								"{{baseUrl}}"
							],
							"path": [
								"api",
								"comment",
								"auth",
								"creator"
							],
							"query": [
								{
									"key": "name",
									"value": "{{username}}"
								}
							]
						}
					},
					"response": []
				},
				{
					"name": "LikeComment",
					"event": [
						{
							"listen": "test",
							"script": {
								"exec": [
									"pm.test(\"Status code is 200\", function () {\r",
									"    pm.response.to.have.status(200);\r",
									"});\r",
									"\r",
									"pm.test(\"Your test name\", function () {\r",
									"    var jsonData = pm.response.json();\r",
									"    pm.expect(jsonData.commentId).to.be.gt(1);\r",
									"});\r",
									"\r",
									""
								],
								"type": "text/javascript"
							}
						}
					],
					"request": {
						"method": "POST",
						"header": [],
						"url": {
							"raw": "{{baseUrl}}/api/comment/auth/likesUp?commentId={{commentId}}&name={{username}}",
							"host": [
								"{{baseUrl}}"
							],
							"path": [
								"api",
								"comment",
								"auth",
								"likesUp"
							],
							"query": [
								{
									"key": "commentId",
									"value": "{{commentId}}",
									"description": "(Required) commentId"
								},
								{
									"key": "name",
									"value": "{{username}}"
								}
							]
						}
					},
					"response": []
				},
				{
					"name": "DeleteComment",
					"event": [
						{
							"listen": "test",
							"script": {
								"exec": [
									"pm.test(\"Response time is less than 200ms\", function () {\r",
									"    pm.expect(pm.response.responseTime).to.be.below(200);\r",
									"});\r",
									"\r",
									"pm.test(\"Status code is 200\", function () {\r",
									"    pm.response.to.have.status(200);\r",
									"});\r",
									"\r",
									"pm.test(\"Status code is 200\", function () {\r",
									"    pm.response.to.have.status(\"OK\");\r",
									"});"
								],
								"type": "text/javascript"
							}
						}
					],
					"request": {
						"method": "DELETE",
						"header": [],
						"url": {
							"raw": "{{baseUrl}}/api/comment/auth/manager?commentId={{commentId}}&name={{username}}",
							"host": [
								"{{baseUrl}}"
							],
							"path": [
								"api",
								"comment",
								"auth",
								"manager"
							],
							"query": [
								{
									"key": "commentId",
									"value": "{{commentId}}",
									"description": "(Required) commentId"
								},
								{
									"key": "name",
									"value": "{{username}}"
								}
							]
						}
					},
					"response": []
				}
			]
		},
		{
			"name": "AdministratorProfile",
			"item": [
				{
					"name": "AdminRegistration",
					"event": [
						{
							"listen": "test",
							"script": {
								"exec": [
									"var req = JSON.parse(pm.request.body.raw);\r",
									"pm.collectionVariables.set(\"adminusername\", req.username);\r",
									"pm.collectionVariables.set(\"adminemail\", req.email);\r",
									"pm.collectionVariables.set(\"adminpassword\", req.password);\r",
									"\r",
									"pm.test(\"Status code is 200\", function () {\r",
									"    pm.response.to.have.status(200);\r",
									"});\r",
									"\r",
									"pm.test(\"User was created\", function () {\r",
									"    pm.expect(pm.response.text()).to.include(\"was created\");\r",
									"});\r",
									"\r",
									"//console.log(pm.response.text().split(\" \"));\r",
									"pm.collectionVariables.set(\"userId\", pm.response.text().split(\" \")[6]);\r",
									"\r",
									"pm.test(\"User name is checked\", function () {\r",
									"    var nom = pm.response.text().split(\" \")[3];\r",
									"    pm.expect(nom).to.be.equal(pm.collectionVariables.get(\"adminusername\"));\r",
									"});"
								],
								"type": "text/javascript"
							}
						}
					],
					"protocolProfileBehavior": {
						"disabledSystemHeaders": {}
					},
					"request": {
						"method": "POST",
						"header": [],
						"body": {
							"mode": "raw",
							"raw": "{\r\n    \"authorities\": [\r\n        \"minim pariatur com\",\r\n        \"irure Excepteur veniam\"\r\n    ],\r\n    \"category\": {\r\n                \"id\": 101,\r\n                \"name\": \"Accountant\"\r\n            },\r\n    \"confirmPassword\": \"{{password}}\",\r\n    \"email\": \"{{$randomEmail}}\",\r\n    \"password\": \"{{$randomPassword}}\",\r\n    \"username\": \"admin{{$randomLastName}}\"\r\n}",
							"options": {
								"raw": {
									"language": "json"
								}
							}
						},
						"url": {
							"raw": "{{baseUrl}}/api/users/",
							"host": [
								"{{baseUrl}}"
							],
							"path": [
								"api",
								"users",
								""
							]
						}
					},
					"response": []
				},
				{
					"name": "AuthenticateAdmin",
					"event": [
						{
							"listen": "test",
							"script": {
								"exec": [
									"pm.test(\"Status code is 200\", function () {\r",
									"    pm.response.to.have.status(200);\r",
									"});\r",
									"\r",
									"pm.test(\"Status code is 200\", function () {\r",
									"    pm.response.to.have.status(\"OK\");\r",
									"});"
								],
								"type": "text/javascript"
							}
						}
					],
					"request": {
						"method": "POST",
						"header": [],
						"body": {
							"mode": "urlencoded",
							"urlencoded": [
								{
									"key": "username",
									"value": "{{adminusername}}",
									"type": "text"
								},
								{
									"key": "password",
									"value": "{{adminpassword}}",
									"type": "text"
								}
							]
						},
						"url": {
							"raw": "{{baseUrl}}/authenticate",
							"host": [
								"{{baseUrl}}"
							],
							"path": [
								"authenticate"
							]
						}
					},
					"response": []
				},
				{
					"name": "ShowAdminHomePage",
					"event": [
						{
							"listen": "test",
							"script": {
								"exec": [
									"pm.test(\"Status code is 200\", function () {\r",
									"    pm.response.to.have.status(200);\r",
									"});\r",
									"\r",
									"pm.test(\"Status code is 200\", function () {\r",
									"    pm.response.to.have.status(\"OK\");\r",
									"});"
								],
								"type": "text/javascript"
							}
						}
					],
					"request": {
						"method": "GET",
						"header": [],
						"url": {
							"raw": "{{baseUrl}}/admin?name={{adminusername}}",
							"host": [
								"{{baseUrl}}"
							],
							"path": [
								"admin"
							],
							"query": [
								{
									"key": "name",
									"value": "{{adminusername}}"
								}
							]
						}
					},
					"response": []
				},
				{
					"name": "RefreshRankOfAllPosts",
					"event": [
						{
							"listen": "test",
							"script": {
								"exec": [
									"pm.test(\"Status code is 200\", function () {\r",
									"    pm.response.to.have.status(200);\r",
									"});\r",
									"\r",
									"pm.test(\"Status code is 200\", function () {\r",
									"    pm.response.to.have.status(\"OK\");\r",
									"});"
								],
								"type": "text/javascript"
							}
						}
					],
					"request": {
						"method": "POST",
						"header": [],
						"url": {
							"raw": "{{baseUrl}}/admin?name={{adminusername}}&sorted=true&unsorted=true",
							"host": [
								"{{baseUrl}}"
							],
							"path": [
								"admin"
							],
							"query": [
								{
									"key": "name",
									"value": "{{adminusername}}"
								},
								{
									"key": "sorted",
									"value": "true"
								},
								{
									"key": "unsorted",
									"value": "true"
								}
							]
						}
					},
					"response": []
				},
				{
					"name": "ShowAllUsersPage",
					"event": [
						{
							"listen": "test",
							"script": {
								"exec": [
									"pm.test(\"Status code is 200\", function () {\r",
									"    pm.response.to.have.status(200);\r",
									"});\r",
									"\r",
									"pm.test(\"Status code is 200\", function () {\r",
									"    pm.response.to.have.status(\"OK\");\r",
									"});"
								],
								"type": "text/javascript"
							}
						}
					],
					"request": {
						"method": "GET",
						"header": [],
						"url": {
							"raw": "{{baseUrl}}/admin/users?index=10&name={{username}}&size=10",
							"host": [
								"{{baseUrl}}"
							],
							"path": [
								"admin",
								"users"
							],
							"query": [
								{
									"key": "index",
									"value": "10"
								},
								{
									"key": "name",
									"value": "{{username}}"
								},
								{
									"key": "size",
									"value": "10"
								}
							]
						}
					},
					"response": []
				}
			]
		}
	],
	"event": [
		{
			"listen": "prerequest",
			"script": {
				"type": "text/javascript",
				"exec": [
					""
				]
			}
		},
		{
			"listen": "test",
			"script": {
				"type": "text/javascript",
				"exec": [
					""
				]
			}
		}
	],
	"variable": [
		{
			"key": "userId",
			"value": ""
		},
		{
			"key": "username",
			"value": ""
		},
		{
			"key": "postId",
			"value": ""
		},
		{
			"key": "commentId",
			"value": ""
		},
		{
			"key": "password",
			"value": ""
		},
		{
			"key": "email",
			"value": ""
		},
		{
			"key": "firstName",
			"value": ""
		},
		{
			"key": "lastName",
			"value": ""
		},
		{
			"key": "adminusername",
			"value": ""
		},
		{
			"key": "adminemail",
			"value": ""
		},
		{
			"key": "adminpassword",
			"value": ""
		}
	]
}